<?xml version="1.0" standalone="no"?>
<!DOCTYPE svg PUBLIC "-//W3C//DTD SVG 1.1//EN" "http://www.w3.org/Graphics/SVG/1.1/DTD/svg11.dtd" >
<svg xmlns="http://www.w3.org/2000/svg">
<metadata>Generated by IcoMoon</metadata>
<defs>
<font id="purdue" horiz-adv-x="512">
<font-face units-per-em="512" ascent="480" descent="-32" />
<missing-glyph horiz-adv-x="512" />
<glyph unicode="&#x20;" d="" horiz-adv-x="256" />
<glyph unicode="&#xe602;" d="M488.88 76.496l-200.304 342.976c-16.704 16.704-43.808 16.704-60.512 0l-200.32-342.976c-16.704-16.688-16.704-43.776 0-60.496h461.12c16.736 16.72 16.736 43.808 0.016 60.496zM239.872 296.352c0 13.264 10.752 24 24 24s24-10.736 24-24v-112c0-13.248-10.752-24-24-24s-24 10.752-24 24v112zM264.016 80.224c-13.248 0-24 10.72-24 24 0 13.248 10.752 24 24 24s24-10.752 24-24c0-13.28-10.752-24-24-24z" />
</font></defs></svg>